Info: Start Nativelink Simulation process

========= EDA Simulation Settings =====================

Sim Mode              :  RTL
Family                :  cyclonev
Quartus root          :  /opt/intelFPGA_lite/18.1/quartus/linux64/
Quartus sim root      :  /opt/intelFPGA_lite/18.1/quartus/eda/sim_lib
Simulation Tool       :  modelsim-altera
Simulation Language   :  vhdl
Version               :  93
Simulation Mode       :  GUI
Sim Output File       :  
Sim SDF file          :  
Sim dir               :  simulation/modelsim

=======================================================

Info: Starting NativeLink simulation with ModelSim-Altera software
Sourced NativeLink script /opt/intelFPGA_lite/18.1/quartus/common/tcl/internal/nativelink/modelsim.tcl
Warning: File DE1_SoC_demo_run_msim_rtl_vhdl.do already exists - backing up current file as DE1_SoC_demo_run_msim_rtl_vhdl.do.bak
Info: Spawning ModelSim-Altera Simulation software 
Info: NativeLink simulation flow was successful
